SpatAn 1: Exercise A – Data Analysis and Monitoring
…
Now that the CRS of the datasets is known, we can use ggplot2 to visualise our data. In InfoVis 1 & 2, we worked intensively with ggplot2 and got to know the geom_point() and geom_line() layers. ggplot() is also able to very easily plot vector data with geom_sf().

Task 3: Transform coordinate systems

In the previous exercise, we assigned a coordinate system but we did not manipulate the existing coordinates (in the geom column). It is quite different to transfer the data from one coordinate system to the other. In the process of transforming the system, the coordinates are converted and thus manipulated. For practical reasons,  we will transfer all our data into the new Swiss coordinate system CH1903+ LV95. Transform the cantons record with st_transform() into CH1903+ LV95, using the correct EPSG code.

Before transforming the data (consider the attributes Bounding box, Projected CRS as well as the values in the geomcolumn):

cantons
## Simple feature collection with 51 features and 6 fields
## Geometry type: POLYGON
## Dimension:     XY
## Bounding box:  xmin: 5.955902 ymin: 45.81796 xmax: 10.49217 ymax: 47.80845
## Geodetic CRS:  WGS 84
## # A tibble: 51 × 7
##    NAME       KANTONSNUM SEE_FLAECH KANTONSFLA KT_TEIL EINWOHNERZ
##  * <chr>           <int>      <dbl>      <dbl> <chr>        <int>
##  1 Graubünden         18         NA     710530 0           197888
##  2 Bern                2      11897     595952 1          1031126
##  3 Valais             23       1060     522463 0           341463
##  4 Vaud               22      39097     321201 1           793129
##  5 Ticino             21       7147     281216 0           353709
##  6 St. Gallen         17       7720     202820 1           504686
##  7 Zürich              1       6811     172894 0          1504346
##  8 Fribourg           10       7818     167142 1           315074
##  9 Luzern              3       6438     149352 0           406506
## 10 Aargau             19        870     140380 1           670988
## # ℹ 41 more rows
## # ℹ 1 more variable: geom <POLYGON [°]>

After transferring the data (consider the Bounding box and Projected CRS attributes as well as the values in the geom column):

cantons
## Simple feature collection with 51 features and 6 fields
## Geometry type: POLYGON
## Dimension:     XY
## Bounding box:  xmin: 2485410 ymin: 1075268 xmax: 2833858 ymax: 1295934
## Projected CRS: CH1903+ / LV95
## # A tibble: 51 × 7
##    NAME       KANTONSNUM SEE_FLAECH KANTONSFLA KT_TEIL EINWOHNERZ
##  * <chr>           <int>      <dbl>      <dbl> <chr>        <int>
##  1 Graubünden         18         NA     710530 0           197888
##  2 Bern                2      11897     595952 1          1031126
##  3 Valais             23       1060     522463 0           341463
##  4 Vaud               22      39097     321201 1           793129
##  5 Ticino             21       7147     281216 0           353709
##  6 St. Gallen         17       7720     202820 1           504686
##  7 Zürich              1       6811     172894 0          1504346
##  8 Fribourg           10       7818     167142 1           315074
##  9 Luzern              3       6438     149352 0           406506
## 10 Aargau             19        870     140380 1           670988
## # ℹ 41 more rows
## # ℹ 1 more variable: geom <POLYGON [m]>
…
